Bell No,Actual Time,SJF Model,Kalman Slow Model,RWP Model,Metronomic Model
1,0,0,0,285.292,0
2,310,227.391,227.391,493.02,206.89
3,540,454.783,454.783,700.748,413.781
4,830,682.174,682.174,908.477,620.671
5,1020,909.565,909.565,1116.2,827.561
6,1180,1136.96,1136.96,1323.93,1034.45
7,1440,1364.35,1364.35,1531.66,1241.34
8,1700,1591.74,1591.74,1739.39,1448.23
9,1930,1819.13,1819.13,1947.12,1655.12
10,2220,2046.52,2046.52,2154.85,1862.01
11,2480,2273.91,2273.91,2362.57,2068.9
12,2580,2501.3,2501.3,2570.3,2275.79
1,2840,2728.7,2728.7,2778.03,2482.68
2,3090,2956.09,2956.09,2985.76,2689.57
3,3330,3183.48,3183.48,3193.49,2896.46
4,3510,3410.87,3410.87,3401.22,3103.35
5,3670,3638.26,3638.26,3608.94,3310.24
6,3870,3865.65,3865.65,3816.67,3517.13
7,3910,4093.04,4093.04,4024.4,3724.02
8,4300,4320.43,4320.43,4232.13,3930.92
9,4500,4547.83,4547.83,4439.86,4137.81
10,4710,4775.22,4775.22,4647.58,4344.7
11,4990,5002.61,5002.61,4855.31,4551.59
12,5230,5230,5230,5063.04,4758.48
1,5610,5628.82,5549.75,5634.04,5172.26
2,5830,5837.83,5772.31,5841.77,5379.15
3,6010,6046.83,5994.87,6049.5,5586.04
4,6280,6255.84,6217.43,6257.23,5792.93
5,6470,6464.84,6439.99,6464.95,5999.82
6,6620,6673.85,6662.56,6672.68,6206.71
7,6930,6882.85,6885.12,6880.41,6413.6
8,7120,7091.86,7107.68,7088.14,6620.49
9,7330,7300.86,7330.24,7295.87,6827.38
10,7530,7509.87,7552.8,7503.6,7034.27
11,7790,7718.87,7775.36,7711.32,7241.16
12,7920,7927.88,7997.93,7919.05,7448.05
1,8140,8136.88,8220.49,8126.78,7654.94
2,8360,8345.89,8443.05,8334.51,7861.83
3,8550,8554.89,8665.61,8542.24,8068.72
4,8750,8763.9,8888.17,8749.97,8275.61
5,8910,8972.9,9110.73,8957.69,8482.5
6,9120,9181.91,9333.3,9165.42,8689.39
7,9330,9390.91,9555.86,9373.15,8896.28
8,9540,9599.92,9778.42,9580.88,9103.17
9,9710,9808.92,10001,9788.61,9310.06
10,9990,10017.9,10223.5,9996.33,9516.95
11,10240,10226.9,10446.1,10204.1,9723.84
12,10470,10435.9,10668.7,10411.8,9930.73
1,10860,10860.8,10882.2,10847.3,10344.5
2,11070,11063.2,11096.8,11050.4,10551.4
3,11220,11265.7,11311.4,11253.5,10758.3
4,11480,11468.1,11525.9,11456.6,10965.2
5,11650,11670.5,11740.5,11659.7,11172.1
6,11840,11872.9,11955.1,11862.8,11379
7,12070,12075.4,12169.7,12065.9,11585.9
8,12280,12277.8,12384.3,12269,11792.7
9,12440,12480.2,12598.9,12472.1,11999.6
10,12680,12682.7,12813.5,12675.2,12206.5
11,12940,12885.1,13028.1,12878.3,12413.4
12,13090,13087.5,13242.7,13081.4,12620.3
1,13340,13289.9,13457.3,13284.5,12827.2
2,13550,13492.4,13671.9,13487.6,13034.1
3,13690,13694.8,13886.5,13690.7,13241
4,13890,13897.2,14101,13893.8,13447.9
5,14070,14099.7,14315.6,14096.9,13654.8
6,14260,14302.1,14530.2,14300,13861.6
7,14440,14504.5,14744.8,14503.1,14068.5
8,14660,14706.9,14959.4,14706.2,14275.4
9,14850,14909.4,15174,14909.3,14482.3
10,15110,15111.8,15388.6,15112.4,14689.2
11,15320,15314.2,15603.2,15315.5,14896.1
12,15590,15516.6,15817.8,15518.6,15103
1,16000,15974.3,16059.4,15981.1,15516.8
2,16160,16176.1,16267.1,16182.5,15723.7
3,16350,16377.9,16474.8,16383.9,15930.6
4,16610,16579.7,16682.6,16585.4,16137.4
5,16800,16781.5,16890.3,16786.8,16344.3
6,16980,16983.3,17098,16988.2,16551.2
7,17230,17185.1,17305.8,17189.6,16758.1
8,17410,17386.9,17513.5,17391.1,16965
9,17570,17588.7,17721.2,17592.5,17171.9
10,17800,17790.5,17929,17793.9,17378.8
11,18040,17992.3,18136.7,17995.4,17585.7
12,18190,18194.1,18344.4,18196.8,17792.6
1,18440,18395.9,18552.1,18398.2,17999.5
2,18620,18597.7,18759.9,18599.6,18206.3
3,18780,18799.5,18967.6,18801.1,18413.2
4,18990,19001.3,19175.3,19002.5,18620.1
5,19150,19203.1,19383.1,19203.9,18827
6,19360,19404.9,19590.8,19405.4,19033.9
7,19560,19606.7,19798.5,19606.8,19240.8
8,19800,19808.5,20006.3,19808.2,19447.7
9,20000,20010.3,20214,20009.6,19654.6
10,20220,20212.1,20421.7,20211.1,19861.5
11,20420,20413.9,20629.5,20412.5,20068.4
12,20660,20615.7,20837.2,20613.9,20275.2
1,21090,21064.8,21143.9,21066.5,20689
2,21270,21265.5,21346.9,21267.1,20895.9
3,21450,21466.3,21550,21467.6,21102.8
4,21690,21667,21753.1,21668.2,21309.7
5,21850,21867.8,21956.2,21868.8,21516.6
6,22040,22068.6,22159.2,22069.3,21723.5
7,22240,22269.3,22362.3,22269.9,21930.4
8,22400,22470.1,22565.4,22470.4,22137.3
9,22680,22670.9,22768.5,22671,22344.1
10,22920,22871.6,22971.6,22871.5,22551
11,23120,23072.4,23174.6,23072.1,22757.9
12,23220,23273.1,23377.7,23272.6,22964.8
1,23550,23473.9,23580.8,23473.2,23171.7
2,23730,23674.7,23783.9,23673.7,23378.6
3,23890,23875.4,23987,23874.3,23585.5
4,24080,24076.2,24190,24074.9,23792.4
5,24230,24276.9,24393.1,24275.4,23999.3
6,24490,24477.7,24596.2,24476,24206.2
7,24650,24678.5,24799.3,24676.5,24413.1
8,24830,24879.2,25002.4,24877.1,24619.9
9,24990,25080,25205.4,25077.6,24826.8
10,25320,25280.8,25408.5,25278.2,25033.7
11,25520,25481.5,25611.6,25478.7,25240.6
12,25700,25682.3,25814.7,25679.3,25447.5
1,26160,26134.8,26191.6,26140.9,25861.3
2,26350,26335.5,26392.3,26341.1,26068.2
3,26520,26536.3,26593.1,26541.4,26275.1
4,26750,26737,26793.8,26741.6,26482
5,26930,26937.7,26994.5,26941.8,26688.8
6,27110,27138.5,27195.2,27142,26895.7
7,27360,27339.2,27395.9,27342.2,27102.6
8,27530,27539.9,27596.6,27542.4,27309.5
9,27690,27740.7,27797.3,27742.6,27516.4
10,27980,27941.4,27998,27942.8,27723.3
11,28230,28142.2,28198.7,28143,27930.2
12,28350,28342.9,28399.4,28343.2,28137.1
1,28550,28543.6,28600.2,28543.4,28344
2,28750,28744.4,28800.9,28743.6,28550.9
3,28940,28945.1,29001.6,28943.9,28757.7
4,29120,29145.8,29202.3,29144.1,28964.6
5,29290,29346.6,29403,29344.3,29171.5
6,29510,29547.3,29603.7,29544.5,29378.4
7,29690,29748.1,29804.4,29744.7,29585.3
8,29930,29948.8,30005.1,29944.9,29792.2
9,30080,30149.5,30205.8,30145.1,29999.1
10,30320,30350.3,30406.5,30345.3,30206
11,30620,30551,30607.3,30545.5,30412.9
12,30880,30751.7,30808,30745.7,30619.8
1,31170,31188,31229.2,31190.6,31033.5
2,31350,31389.6,31429.1,31391.5,31240.4
3,31520,31591.2,31629,31592.5,31447.3
4,31770,31792.8,31828.8,31793.4,31654.2
5,31930,31994.4,32028.7,31994.3,31861.1
6,32160,32196,32228.6,32195.2,32068
7,32410,32397.6,32428.4,32396.2,32274.9
8,32600,32599.2,32628.3,32597.1,32481.8
9,32780,32800.9,32828.2,32798,32688.7
10,33000,33002.5,33028,32998.9,32895.6
11,33320,33204.1,33227.9,33199.9,33102.4
12,33480,33405.7,33427.8,33400.8,33309.3
1,33640,33607.3,33627.6,33601.7,33516.2
2,33880,33808.9,33827.5,33802.6,33723.1
3,34010,34010.5,34027.4,34003.6,33930
4,34190,34212.1,34227.2,34204.5,34136.9
5,34340,34413.8,34427.1,34405.4,34343.8
6,34550,34615.4,34627,34606.3,34550.7
7,34790,34817,34826.8,34807.3,34757.6
8,35000,35018.6,35026.7,35008.2,34964.5
9,35140,35220.2,35226.6,35209.1,35171.3
10,35390,35421.8,35426.4,35410,35378.2
11,35690,35623.4,35626.3,35611,35585.1
12,35920,35825,35826.2,35811.9,35792
1,36320,36285.3,36293.9,36294.1,36205.8
2,36520,36486.9,36494.2,36495.3,36412.7
3,36670,36688.6,36694.5,36696.5,36619.6
4,36930,36890.2,36894.8,36897.7,36826.5
5,37070,37091.9,37095.2,37098.9,37033.4
6,37310,37293.5,37295.5,37300.1,37240.2
7,37530,37495.2,37495.8,37501.3,37447.1
8,37700,37696.8,37696.1,37702.5,37654
9,37820,37898.4,37896.5,37903.7,37860.9
10,38070,38100.1,38096.8,38104.9,38067.8
11,38350,38301.7,38297.1,38306.1,38274.7
12,38470,38503.4,38497.4,38507.3,38481.6
1,38730,38705,38697.8,38708.5,38688.5
2,38950,38906.7,38898.1,38909.7,38895.4
3,39120,39108.3,39098.4,39110.9,39102.3
4,39350,39310,39298.7,39312.1,39309.2
5,39520,39511.6,39499.1,39513.3,39516
6,39740,39713.2,39699.4,39714.5,39722.9
7,39920,39914.9,39899.7,39915.7,39929.8
8,40110,40116.5,40100,40117,40136.7
9,40270,40318.2,40300.4,40318.2,40343.6
10,40460,40519.8,40500.7,40519.4,40550.5
11,40710,40721.5,40701,40720.6,40757.4
12,40950,40923.1,40901.3,40921.8,40964.3
1,41340,41365.4,41365.2,41373.9,41378.1
2,41560,41566.8,41565.9,41574.4,41584.9
3,41720,41768.3,41766.6,41775,41791.8
4,41960,41969.8,41967.3,41975.5,41998.7
5,42140,42171.3,42168,42176,42205.6
6,42400,42372.8,42368.8,42376.6,42412.5
7,42620,42574.3,42569.5,42577.1,42619.4
8,42810,42775.8,42770.2,42777.6,42826.3
9,42980,42977.3,42970.9,42978.1,43033.2
10,43170,43178.8,43171.6,43178.7,43240.1
11,43410,43380.3,43372.3,43379.2,43447
12,43600,43581.8,43573.1,43579.7,43653.8
1,43800,43783.3,43773.8,43780.3,43860.7
2,43990,43984.8,43974.5,43980.8,44067.6
3,44140,44186.3,44175.2,44181.3,44274.5
4,44330,44387.8,44375.9,44381.9,44481.4
5,44540,44589.3,44576.6,44582.4,44688.3
6,44800,44790.8,44777.3,44782.9,44895.2
7,44960,44992.3,44978.1,44983.4,45102.1
8,45190,45193.8,45178.8,45184,45309
9,45350,45395.3,45379.5,45384.5,45515.9
10,45590,45596.8,45580.2,45585,45722.8
11,45810,45798.3,45780.9,45785.6,45929.6
12,46110,45999.8,45981.6,45986.1,46136.5
1,46470,46440.6,46439.5,46443.2,46550.3
2,46640,46641.8,46640.4,46644,46757.2
3,46790,46843,46841.3,46844.8,46964.1
4,47030,47044.3,47042.2,47045.6,47171
5,47200,47245.5,47243.1,47246.4,47377.9
6,47430,47446.8,47444,47447.2,47584.8
7,47640,47648,47644.9,47648,47791.7
8,47820,47849.3,47845.8,47848.9,47998.5
9,48050,48050.5,48046.7,48049.7,48205.4
10,48250,48251.7,48247.6,48250.5,48412.3
11,48510,48453,48448.5,48451.3,48619.2
12,48700,48654.2,48649.4,48652.1,48826.1
1,48920,48855.5,48850.3,48852.9,49033
2,49090,49056.7,49051.2,49053.7,49239.9
3,49240,49258,49252.1,49254.5,49446.8
4,49430,49459.2,49453,49455.3,49653.7
5,49630,49660.5,49653.9,49656.1,49860.6
6,49860,49861.7,49854.8,49857,50067.4
7,50030,50062.9,50055.7,50057.8,50274.3
8,50250,50264.2,50256.6,50258.6,50481.2
9,50380,50465.4,50457.5,50459.4,50688.1
10,50660,50666.7,50658.4,50660.2,50895
11,50900,50867.9,50859.3,50861,51101.9
12,51140,51069.2,51060.2,51061.8,51308.8
1,51540,51518.9,51520.6,51524,51722.6
2,51730,51720.6,51721.7,51725.3,51929.5
3,51860,51922.3,51922.9,51926.6,52136.3
4,52120,52123.9,52124,52127.9,52343.2
5,52310,52325.6,52325.2,52329.2,52550.1
6,52550,52527.3,52526.3,52530.4,52757
7,52760,52728.9,52727.5,52731.7,52963.9
8,52930,52930.6,52928.6,52933,53170.8
9,53110,53132.3,53129.7,53134.3,53377.7
10,53360,53334,53330.9,53335.6,53584.6
11,53580,53535.6,53532,53536.8,53791.5
12,53710,53737.3,53733.2,53738.1,53998.4
1,53980,53939,53934.3,53939.4,54205.3
2,54170,54140.6,54135.5,54140.7,54412.1
3,54310,54342.3,54336.6,54341.9,54619
4,54530,54544,54537.8,54543.2,54825.9
5,54720,54745.7,54738.9,54744.5,55032.8
6,54950,54947.3,54940.1,54945.8,55239.7
7,55150,55149,55141.2,55147.1,55446.6
8,55340,55350.7,55342.4,55348.3,55653.5
9,55500,55552.3,55543.5,55549.6,55860.4
10,55770,55754,55744.6,55750.9,56067.3
11,55970,55955.7,55945.8,55952.2,56274.2
12,56180,56157.4,56146.9,56153.5,56481
1,56630,56611.2,56610.5,56616.2,56894.8
2,56810,56813.1,56811.9,56817.8,57101.7
3,57000,57015,57013.4,57019.5,57308.6
4,57230,57216.9,57214.9,57221.1,57515.5
5,57400,57418.8,57416.4,57422.7,57722.4
6,57620,57620.7,57617.8,57624.4,57929.3
7,57850,57822.7,57819.3,57826,58136.2
8,58020,58024.6,58020.8,58027.6,58343.1
9,58210,58226.5,58222.2,58229.3,58549.9
10,58460,58428.4,58423.7,58430.9,58756.8
11,58700,58630.3,58625.2,58632.5,58963.7
12,58810,58832.2,58826.6,58834.2,59170.6
1,59070,59034.1,59028.1,59035.8,59377.5
2,59260,59236,59229.6,59237.5,59584.4
3,59420,59438,59431,59439.1,59791.3
4,59590,59639.9,59632.5,59640.7,59998.2
5,59820,59841.8,59834,59842.4,60205.1
6,60070,60043.7,60035.4,60044,60412
7,60250,60245.6,60236.9,60245.6,60618.9
8,60410,60447.5,60438.4,60447.3,60825.7
9,60620,60649.4,60639.8,60648.9,61032.6
10,60830,60851.3,60841.3,60850.5,61239.5
11,61070,61053.3,61042.8,61052.2,61446.4
12,61290,61255.2,61244.2,61253.8,61653.3
1,61770,61713.4,61709.3,61723.6,62067.1
2,61930,61915.4,61911.1,61925,62274
3,62090,62117.4,62112.9,62126.3,62480.9
4,62300,62319.4,62314.7,62327.7,62687.8
5,62480,62521.4,62516.5,62529,62894.6
6,62730,62723.4,62718.3,62730.4,63101.5
7,62970,62925.4,62920.1,62931.7,63308.4
8,63130,63127.4,63121.9,63133.1,63515.3
9,63290,63329.4,63323.7,63334.4,63722.2
10,63530,63531.4,63525.5,63535.8,63929.1
11,63770,63733.4,63727.3,63737.1,64136
12,63940,63935.4,63929.1,63938.5,64342.9
1,64200,64137.4,64131,64139.8,64549.8
2,64380,64339.4,64332.8,64341.2,64756.7
3,64570,64541.4,64534.6,64542.5,64963.5
4,64760,64743.4,64736.4,64743.9,65170.4
5,64950,64945.4,64938.2,64945.3,65377.3
6,65160,65147.4,65140,65146.6,65584.2
7,65290,65349.4,65341.8,65348,65791.1
8,65480,65551.4,65543.6,65549.3,65998
9,65730,65753.4,65745.4,65750.7,66204.9
10,65930,65955.4,65947.2,65952,66411.8
11,66160,66157.4,66149,66153.4,66618.7
12,66400,66359.4,66350.8,66354.7,66825.6
1,66790,66795.3,66802.7,66801.8,67239.3
2,66980,66998,67004.5,67003.5,67446.2
3,67120,67200.6,67206.4,67205.2,67653.1
4,67360,67403.3,67408.3,67406.9,67860
5,67580,67606,67610.1,67608.6,68066.9
6,67810,67808.7,67812,67810.3,68273.8
7,68040,68011.4,68013.9,68011.9,68480.7
8,68200,68214,68215.7,68213.6,68687.6
9,68390,68416.7,68417.6,68415.3,68894.5
10,68620,68619.4,68619.5,68617,69101.4
11,68860,68822.1,68821.3,68818.7,69308.2
12,69020,69024.8,69023.2,69020.4,69515.1
1,69280,69227.5,69225.1,69222.1,69722
2,69440,69430.1,69426.9,69423.8,69928.9
3,69620,69632.8,69628.8,69625.5,70135.8
4,69800,69835.5,69830.7,69827.2,70342.7
5,70010,70038.2,70032.5,70028.9,70549.6
6,70270,70240.9,70234.4,70230.6,70756.5
7,70460,70443.5,70436.3,70432.2,70963.4
8,70620,70646.2,70638.1,70633.9,71170.3
9,70830,70848.9,70840,70835.6,71377.1
10,71080,71051.6,71041.9,71037.3,71584
11,71240,71254.3,71243.7,71239,71790.9
12,71490,71457,71445.6,71440.7,71997.8
1,71920,71902,71909.6,71902.7,72411.6
2,72100,72105.6,72111.9,72106.2,72618.5
3,72280,72309.2,72314.2,72309.6,72825.4
4,72490,72512.8,72516.5,72513.1,73032.3
5,72680,72716.4,72718.7,72716.5,73239.2
6,72940,72920,72921,72920,73446
7,73170,73123.6,73123.3,73123.5,73652.9
8,73290,73327.2,73325.6,73326.9,73859.8
9,73520,73530.8,73527.9,73530.4,74066.7
10,73810,73734.5,73730.2,73733.8,74273.6
11,73920,73938.1,73932.5,73937.3,74480.5
12,74080,74141.7,74134.7,74140.8,74687.4
1,74360,74345.3,74337,74344.2,74894.3
2,74560,74548.9,74539.3,74547.7,75101.2
3,74750,74752.5,74741.6,74751.2,75308.1
4,74940,74956.1,74943.9,74954.6,75515
5,75130,75159.7,75146.2,75158.1,75721.8
6,75380,75363.3,75348.5,75361.5,75928.7
7,75620,75566.9,75550.7,75565,76135.6
8,75780,75770.5,75753,75768.5,76342.5
9,75920,75974.1,75955.3,75971.9,76549.4
10,76200,76177.7,76157.6,76175.4,76756.3
11,76380,76381.3,76359.9,76378.8,76963.2
12,76600,76584.9,76562.2,76582.3,77170.1
2,77070,77047.6,77050.2,77064.8,77583.9
1,77300,77253,77253.6,77269.1,77790.7
3,77460,77458.4,77457,77473.4,77997.6
5,77650,77663.8,77660.4,77677.7,78204.5
4,77860,77869.2,77863.9,77882,78411.4
7,78100,78074.7,78067.3,78086.3,78618.3
6,78330,78280.1,78270.7,78290.6,78825.2
9,78510,78485.5,78474.1,78494.8,79032.1
8,78740,78690.9,78677.5,78699.1,79239
11,78880,78896.3,78881,78903.4,79445.9
10,79100,79101.7,79084.4,79107.7,79652.8
12,79250,79307.1,79287.8,79312,79859.6
2,79520,79512.5,79491.2,79516.3,80066.5
3,79720,79717.9,79694.6,79720.6,80273.4
1,79890,79923.3,79898,79924.9,80480.3
4,80090,80128.7,80101.5,80129.2,80687.2
5,80300,80334.2,80304.9,80333.5,80894.1
6,80540,80539.6,80508.3,80537.8,81101
7,80790,80745,80711.7,80742.1,81307.9
8,80970,80950.4,80915.1,80946.4,81514.8
9,81090,81155.8,81118.6,81150.7,81721.7
10,81350,81361.2,81322,81355,81928.5
11,81660,81566.6,81525.4,81559.3,82135.4
12,81770,81772,81728.8,81763.5,82342.3
3,82180,82220.5,82208.9,82224.8,82756.1
2,82370,82425.4,82413.2,82429.4,82963
4,82600,82630.4,82617.5,82634,83169.9
1,82840,82835.3,82821.8,82838.6,83376.8
6,83070,83040.3,83026,83043.1,83583.7
5,83270,83245.2,83230.3,83247.7,83790.6
8,83480,83450.2,83434.6,83452.3,83997.5
7,83780,83655.1,83638.9,83656.9,84204.3
9,83930,83860.1,83843.1,83861.5,84411.2
11,84070,84065.1,84047.4,84066,84618.1
10,84300,84270,84251.7,84270.6,84825
12,84410,84475,84456,84475.2,85031.9
2,84690,84679.9,84660.2,84679.8,85238.8
3,84820,84884.9,84864.5,84884.4,85445.7
4,85030,85089.8,85068.8,85089,85652.6
6,85270,85294.8,85273.1,85293.5,85859.5
1,85480,85499.7,85477.4,85498.1,86066.4
8,85700,85704.7,85681.6,85702.7,86273.2
5,85890,85909.7,85885.9,85907.3,86480.1
9,86120,86114.6,86090.2,86111.9,86687
7,86360,86319.6,86294.5,86316.4,86893.9
10,86510,86524.5,86498.7,86521,87100.8
11,86760,86729.5,86703,86725.6,87307.7
12,86930,86934.4,86907.3,86930.2,87514.6
2,87430,87396.7,87386.3,87408.5,87928.4
4,87660,87602.2,87591.4,87613.3,88135.3
3,87820,87807.7,87796.4,87818.1,88342.1
1,88030,88013.2,88001.5,88022.9,88549
6,88230,88218.7,88206.5,88227.7,88755.9
5,88450,88424.2,88411.6,88432.5,88962.8
8,88650,88629.7,88616.6,88637.3,89169.7
7,88830,88835.2,88821.7,88842.1,89376.6
9,88960,89040.7,89026.7,89046.9,89583.5
11,89260,89246.2,89231.8,89251.7,89790.4
10,89420,89451.7,89436.8,89456.5,89997.3
12,89590,89657.2,89641.9,89661.3,90204.2
4,89930,89862.7,89847,89866.2,90411.1
2,90070,90068.2,90052,90071,90617.9
3,90260,90273.7,90257.1,90275.8,90824.8
6,90480,90479.2,90462.1,90480.6,91031.7
1,90700,90684.7,90667.2,90685.4,91238.6
8,90890,90890.2,90872.2,90890.2,91445.5
5,91130,91095.7,91077.3,91095,91652.4
9,91270,91301.2,91282.3,91299.8,91859.3
7,91480,91506.7,91487.4,91504.6,92066.2
10,91720,91712.2,91692.4,91709.4,92273.1
11,91920,91917.7,91897.5,91914.2,92480
12,92150,92123.2,92102.5,92119,92686.8
4,92600,92578.3,92567.4,92588.4,93100.6
3,92790,92783.4,92772.8,92792.7,93307.5
2,92960,92988.5,92978.2,92997.1,93514.4
1,93220,93193.7,93183.6,93201.4,93721.3
6,93430,93398.8,93389,93405.8,93928.2
5,93630,93603.9,93594.3,93610.1,94135.1
8,93840,93809,93799.7,93814.4,94342
7,94020,94014.2,94005.1,94018.8,94548.9
9,94240,94219.3,94210.5,94223.1,94755.7
11,94410,94424.4,94415.9,94427.5,94962.6
10,94620,94629.5,94621.2,94631.8,95169.5
12,94780,94834.6,94826.6,94836.2,95376.4
3,95010,95039.8,95032,95040.5,95583.3
4,95180,95244.9,95237.4,95244.8,95790.2
2,95440,95450,95442.8,95449.2,95997.1
6,95660,95655.1,95648.1,95653.5,96204
1,95850,95860.2,95853.5,95857.9,96410.9
8,96080,96065.4,96058.9,96062.2,96617.8
5,96310,96270.5,96264.3,96266.6,96824.6
9,96470,96475.6,96469.7,96470.9,97031.5
7,96680,96680.7,96675,96675.2,97238.4
10,96880,96885.9,96880.4,96879.6,97445.3
11,97120,97091,97085.8,97083.9,97652.2
12,97300,97296.1,97291.2,97288.3,97859.1
4,97730,97745.3,97742.1,97742.9,98272.9
3,97920,97950.3,97947.4,97948,98479.8
6,98130,98155.2,98152.7,98153,98686.7
2,98360,98360.2,98358,98358.1,98893.6
8,98580,98565.1,98563.3,98563.2,99100.4
1,98810,98770.1,98768.6,98768.3,99307.3
9,99020,98975,98973.9,98973.3,99514.2
5,99200,99180,99179.2,99178.4,99721.1
10,99330,99384.9,99384.5,99383.5,99928
7,99580,99589.9,99589.8,99588.6,100135
11,99800,99794.9,99795.1,99793.6,100342
12,99980,99999.8,100000,99998.7,100549
4,100170,100205,100206,100204,100756
6,100440,100410,100411,100409,100962
3,100620,100615,100616,100614,101169
8,100830,100820,100822,100819,101376
2,101060,101025,101027,101024,101583
9,101190,101230,101232,101229,101790
1,101440,101435,101437,101434,101997
10,101630,101639,101643,101639,102204
5,101850,101844,101848,101844,102411
11,102040,102049,102053,102049,102618
7,102240,102254,102259,102255,102824
12,102480,102459,102464,102460,103031
6,102970,102931,102934,102949,103445
4,103200,103138,103140,103154,103652
3,103360,103344,103346,103360,103859
2,103570,103551,103551,103565,104066
8,103780,103758,103757,103771,104273
1,104020,103964,103963,103977,104480
9,104170,104171,104169,104182,104686
5,104340,104378,104375,104388,104893
10,104520,104584,104580,104593,105100
7,104770,104791,104786,104799,105307
11,104980,104998,104992,105005,105514
12,105080,105204,105198,105210,105721
6,105470,105411,105404,105416,105928
3,105690,105618,105609,105621,106135
4,105840,105824,105815,105827,106342
8,106060,106031,106021,106032,106548
2,106280,106238,106227,106238,106755
9,106420,106444,106433,106444,106962
1,106640,106651,106638,106649,107169
10,106850,106857,106844,106855,107376
5,107080,107064,107050,107060,107583
11,107260,107271,107256,107266,107790
7,107500,107477,107462,107472,107997
12,107660,107684,107667,107677,108204
3,108140,108141,108128,108147,108617
6,108380,108346,108334,108352,108824
4,108560,108551,108540,108556,109031
2,108790,108757,108746,108761,109238
8,109040,108962,108951,108966,109445
1,109240,109167,109157,109171,109652
9,109370,109372,109363,109376,109859
5,109560,109578,109569,109580,110066
10,109710,109783,109775,109785,110273
7,109920,109988,109981,109990,110479
11,110150,110193,110187,110195,110686
12,110330,110399,110393,110400,110893
3,110600,110604,110599,110604,111100
4,110760,110809,110805,110809,111307
6,111030,111014,111011,111014,111514
8,111250,111219,111217,111219,111721
2,111490,111425,111423,111424,111928
9,111630,111630,111629,111629,112135
1,111840,111835,111835,111833,112341
10,112040,112040,112041,112038,112548
5,112260,112246,112247,112243,112755
11,112430,112451,112453,112448,112962
7,112650,112656,112659,112653,113169
12,112880,112861,112864,112857,113376
4,113280,113315,113312,113321,113790
3,113460,113520,113518,113525,113997
8,113710,113725,113724,113730,114203
6,113950,113930,113929,113935,114410
9,114170,114136,114135,114139,114617
2,114410,114341,114341,114344,114824
10,114550,114546,114546,114548,115031
1,114780,114751,114752,114753,115238
11,114950,114956,114958,114958,115445
5,115230,115162,115164,115162,115652
7,115420,115367,115369,115367,115859
12,115480,115572,115575,115571,116065
3,115770,115777,115781,115776,116272
4,115930,115983,115987,115981,116479
8,116130,116188,116192,116185,116686
9,116350,116393,116398,116390,116893
6,116570,116598,116604,116594,117100
10,116780,116804,116810,116799,117307
2,117050,117009,117015,117004,117514
11,117220,117214,117221,117208,117721
1,117450,117419,117427,117413,117927
7,117630,117625,117633,117618,118134
5,117840,117830,117838,117822,118341
12,118060,118035,118044,118027,118548
3,118470,118491,118493,118494,118962
8,118690,118697,118698,118699,119169
4,118890,118902,118904,118904,119376
6,119110,119107,119109,119109,119583
9,119340,119313,119315,119314,119789
2,119560,119518,119520,119519,119996
10,119710,119723,119726,119725,120203
1,119960,119929,119932,119930,120410
11,120130,120134,120137,120135,120617
5,120310,120340,120343,120340,120824
7,120560,120545,120548,120545,121031
12,120700,120750,120754,120750,121238
8,121000,120956,120959,120955,121445
3,121180,121161,121165,121161,121651
4,121330,121366,121371,121366,121858
9,121540,121572,121576,121571,122065
6,121730,121777,121782,121776,122272
10,122010,121982,121987,121981,122479
2,122230,122188,122193,122186,122686
11,122390,122393,122398,122392,122893
1,122620,122598,122604,122597,123100
7,122800,122804,122810,122802,123307
5,123000,123009,123015,123007,123513
12,123210,123214,123221,123212,123720
8,123670,123679,123681,123694,124134
4,123880,123885,123887,123899,124341
3,124080,124092,124092,124104,124548
6,124330,124298,124298,124309,124755
9,124460,124504,124504,124514,124962
2,124730,124710,124710,124719,125169
10,124920,124916,124916,124924,125376
1,125180,125122,125121,125129,125582
11,125320,125328,125327,125334,125789
5,125610,125534,125533,125539,125996
7,125810,125741,125739,125744,126203
12,125840,125947,125944,125950,126410
4,126130,126153,126150,126155,126617
8,126370,126359,126356,126360,126824
3,126610,126565,126562,126565,127031
9,126760,126771,126767,126770,127238
6,126950,126977,126973,126975,127444
10,127170,127183,127179,127180,127651
2,127430,127389,127385,127385,127858
11,127600,127596,127591,127590,128065
1,127750,127802,127796,127795,128272
7,128020,128008,128002,128000,128479
5,128270,128214,128208,128205,128686
12,128360,128420,128414,128410,128893
8,128890,128879,128864,128876,129306
4,129080,129083,129069,129081,129513
9,129330,129287,129275,129285,129720
3,129450,129491,129481,129490,129927
10,129740,129695,129686,129694,130134
6,129900,129899,129892,129898,130341
11,130130,130103,130097,130103,130548
2,130330,130308,130303,130307,130755
7,130590,130512,130508,130512,130962
1,130640,130716,130714,130716,131168
5,130870,130920,130919,130920,131375
12,131020,131124,131125,131125,131582
8,131360,131328,131331,131329,131789
9,131540,131532,131536,131534,131996
4,131730,131736,131742,131738,132203
10,131970,131940,131947,131943,132410
3,132180,132144,132153,132147,132617
11,132400,132348,132358,132351,132824
6,132520,132552,132564,132556,133030
7,132780,132756,132769,132760,133237
2,132980,132960,132975,132965,133444
5,133200,133164,133181,133169,133651
1,133250,133369,133386,133373,133858
12,133570,133573,133592,133578,134065
9,134070,134042,134037,134041,134479
8,134290,134246,134243,134245,134686
4,134480,134451,134448,134450,134892
3,134640,134655,134653,134654,135099
10,134860,134859,134858,134859,135306
6,135040,135063,135064,135063,135513
11,135310,135267,135269,135268,135720
2,135460,135471,135474,135472,135927
7,135660,135675,135679,135677,136134
1,135840,135879,135884,135882,136341
5,136130,136084,136090,136086,136548
12,136190,136288,136295,136291,136754
9,136500,136492,136500,136495,136961
4,136710,136696,136705,136700,137168
8,136930,136900,136910,136904,137375
10,137130,137104,137116,137109,137582
3,137330,137308,137321,137313,137789
11,137570,137513,137526,137518,137996
6,137750,137717,137731,137722,138203
7,137860,137921,137937,137927,138410
2,138100,138125,138142,138132,138616
5,138360,138329,138347,138336,138823
1,138500,138533,138552,138541,139030
12,138720,138737,138757,138745,139237
4,139240,139215,139213,139214,139651
9,139480,139420,139418,139419,139858
8,139680,139625,139623,139624,140065
3,139830,139829,139828,139830,140272
10,140040,140034,140034,140035,140478
6,140270,140239,140239,140240,140685
11,140450,140444,140444,140446,140892
2,140650,140649,140649,140651,141099
7,140830,140853,140854,140856,141306
1,141030,141058,141060,141061,141513
5,141260,141263,141265,141267,141720
12,141340,141468,141470,141472,141927
4,141690,141672,141675,141677,142134
8,141930,141877,141880,141883,142341
9,142020,142082,142085,142088,142547
10,142310,142287,142291,142293,142754
3,142530,142491,142496,142498,142961
11,142710,142696,142701,142704,143168
6,142890,142901,142906,142909,143375
7,143130,143106,143111,143114,143582
2,143360,143310,143317,143319,143789
5,143580,143515,143522,143525,143996
1,143680,143720,143727,143730,144203
12,143860,143925,143932,143935,144409
8,144410,144406,144402,144424,144823
4,144600,144612,144607,144629,145030
10,144830,144818,144813,144833,145237
9,145020,145024,145019,145038,145444
11,145250,145229,145224,145243,145651
3,145450,145435,145430,145447,145858
7,145690,145641,145635,145652,146065
6,145890,145847,145841,145857,146271
5,146150,146053,146047,146061,146478
2,146320,146259,146252,146266,146685
1,146470,146465,146458,146471,146892
12,146510,146671,146663,146676,147099
4,146880,146876,146869,146880,147306
8,147060,147082,147075,147085,147513
10,147220,147288,147280,147290,147720
11,147530,147494,147486,147494,147927
9,147750,147700,147692,147699,148133
7,147850,147906,147897,147904,148340
3,148100,148112,148103,148109,148547
5,148380,148317,148308,148313,148754
6,148530,148523,148514,148518,148961
1,148710,148729,148720,148723,149168
2,148910,148935,148925,148927,149375
12,149160,149141,149131,149132,149582
4,149550,149591,149576,149582,149995
10,149790,149795,149781,149786,150202
8,150020,149999,149987,149991,150409
9,150280,150202,150192,150195,150616
11,150440,150406,150397,150399,150823
3,150550,150610,150602,150603,151030
7,150770,150814,150808,150807,151237
6,150990,151018,151013,151012,151444
5,151180,151222,151218,151216,151651
2,151390,151426,151424,151420,151857
1,151570,151629,151629,151624,152064
12,151800,151833,151834,151828,152271
10,152040,152037,152040,152033,152478
4,152250,152241,152245,152237,152685
8,152450,152445,152450,152441,152892
11,152710,152649,152655,152645,153099
9,152930,152852,152861,152849,153306
7,153020,153056,153066,153053,153513
3,153250,153260,153271,153258,153719
5,153460,153464,153477,153462,153926
6,153640,153668,153682,153666,154133
1,153830,153872,153887,153870,154340
2,154070,154076,154092,154074,154547
12,154350,154279,154298,154279,154754
10,154750,154746,154750,154750,155168
8,154990,154951,154955,154955,155375
4,155150,155157,155160,155160,155581
9,155410,155362,155366,155365,155788
11,155580,155568,155571,155570,155995
3,155710,155773,155776,155775,156202
7,155960,155978,155981,155980,156409
6,156180,156184,156187,156185,156616
5,156380,156389,156392,156390,156823
2,156580,156595,156597,156595,157030
1,156740,156800,156802,156800,157237
12,156970,157005,157008,157005,157443
8,157260,157211,157213,157210,157650
10,157390,157416,157418,157416,157857
4,157600,157622,157623,157621,158064
11,157830,157827,157829,157826,158271
9,158040,158032,158034,158031,158478
7,158260,158238,158239,158236,158685
3,158440,158443,158444,158441,158892
5,158690,158649,158650,158646,159099
6,158880,158854,158855,158851,159306
1,159060,159060,159060,159056,159512
2,159260,159265,159265,159261,159719
12,159480,159470,159471,159466,159926
10,159940,159945,159934,159951,160340
8,160180,160150,160140,160155,160547
11,160370,160355,160345,160360,160754
4,160520,160560,160550,160565,160961
7,160790,160765,160756,160769,161168
9,161030,160969,160961,160974,161374
5,161200,161174,161167,161179,161581
3,161390,161379,161372,161383,161788
1,161580,161584,161578,161588,161995
6,161850,161789,161783,161793,162202
2,161990,161994,161989,161998,162409
12,162090,162199,162194,162202,162616
10,162340,162404,162400,162407,162823
11,162630,162609,162605,162612,163030
8,162840,162814,162810,162816,163236
7,163040,163019,163016,163021,163443
4,163230,163223,163221,163226,163650
5,163450,163428,163427,163430,163857
9,163660,163633,163632,163635,164064
1,163850,163838,163838,163840,164271
3,164080,164043,164043,164045,164478
2,164230,164248,164249,164249,164685
6,164430,164453,164454,164454,164892
12,164600,164658,164659,164659,165098
11,165100,165121,165107,165118,165512
10,165290,165325,165313,165322,165719
8,165510,165529,165518,165526,165926
4,165730,165733,165723,165730,166133
7,166000,165936,165928,165934,166340
9,166220,166140,166133,166138,166547
5,166420,166344,166339,166342,166754
3,166560,166547,166544,166546,166960
1,166690,166751,166749,166750,167167
6,166950,166955,166954,166954,167374
2,167130,167158,167159,167157,167581
12,167270,167362,167364,167361,167788
11,167560,167566,167570,167565,167995
8,167770,167769,167775,167769,168202
10,167940,167973,167980,167973,168409
7,168170,168177,168185,168177,168616
4,168380,168381,168390,168381,168822
5,168620,168584,168595,168585,169029
9,168820,168788,168801,168789,169236
1,169020,168992,169006,168993,169443
3,169170,169195,169211,169197,169650
2,169390,169399,169416,169401,169857
6,169600,169603,169621,169605,170064
12,169810,169806,169826,169809,170271
8,170270,170275,170272,170262,170684
11,170460,170479,170477,170467,170891
10,170690,170683,170682,170672,171098
4,170890,170887,170886,170877,171305
7,171120,171091,171091,171083,171512
9,171320,171295,171296,171288,171719
5,171520,171499,171501,171493,171926
3,171670,171703,171706,171698,172133
1,171880,171907,171911,171903,172340
6,172180,172111,172115,172108,172546
2,172230,172315,172320,172314,172753
12,172480,172519,172525,172519,172960
8,172730,172723,172730,172724,173167
10,172950,172927,172935,172929,173374
11,173140,173131,173140,173134,173581
7,173320,173335,173344,173339,173788
4,173520,173539,173549,173544,173995
5,173800,173743,173754,173750,174202
9,173950,173947,173959,173955,174409
1,174200,174151,174164,174160,174615
3,174350,174355,174369,174365,174822
2,174540,174559,174574,174570,175029
6,174750,174763,174778,174775,175236
12,174950,174967,174983,174980,175443
10,175540,175467,175461,175478,175857
8,175730,175672,175666,175684,176064
7,175930,175878,175872,175889,176271
11,176080,176084,176077,176095,176477
5,176310,176290,176283,176300,176684
4,176490,176495,176488,176506,176891
1,176740,176701,176694,176711,177098
9,176950,176907,176899,176917,177305
2,177110,177112,177105,177122,177512
3,177290,177318,177310,177328,177719
6,177510,177524,177515,177533,177926
12,177590,177730,177721,177739,178133
8,177950,177935,177926,177944,178339
10,178130,178141,178132,178150,178546
7,178390,178347,178337,178355,178753
5,178610,178553,178543,178561,178960
11,178760,178758,178748,178766,179167
1,179010,178964,178954,178972,179374
4,179220,179170,179159,179177,179581
2,179430,179375,179365,179383,179788
9,179600,179581,179570,179589,179995
6,179710,179787,179775,179794,180201
3,179990,179993,179981,180000,180408
12,180130,180198,180186,180205,180615
8,180650,180668,180648,180668,181029
7,180890,180872,180854,180872,181236
10,181080,181077,181059,181077,181443
11,181290,181281,181265,181281,181650
5,181530,181486,181470,181485,181857
4,181730,181690,181676,181690,182063
1,181940,181894,181882,181894,182270
9,182100,182099,182087,182098,182477
2,182280,182303,182293,182303,182684
3,182440,182508,182498,182507,182891
6,182670,182712,182704,182711,183098
12,182800,182916,182909,182916,183305
7,183100,183121,183115,183120,183512
8,183320,183325,183321,183324,183719
10,183490,183530,183526,183529,183925
5,183770,183734,183732,183733,184132
11,183970,183938,183937,183937,184339
1,184190,184143,184143,184142,184546
4,184420,184347,184349,184346,184753
2,184610,184552,184554,184551,184960
9,184740,184756,184760,184755,185167
6,184910,184960,184965,184959,185374
3,185150,185165,185171,185164,185581
12,185360,185369,185377,185368,185787
7,185760,185829,185824,185829,186201
10,186000,186033,186030,186034,186408
8,186230,186238,186235,186238,186615
11,186420,186443,186440,186442,186822
5,186660,186648,186646,186647,187029
4,186870,186853,186851,186851,187236
1,187080,187058,187056,187055,187443
9,187330,187262,187262,187260,187649
2,187470,187467,187467,187464,187856
3,187630,187672,187673,187669,188063
6,187820,187877,187878,187873,188270
12,188030,188082,188083,188077,188477
10,188250,188287,188289,188282,188684
7,188470,188491,188494,188486,188891
8,188710,188696,188699,188691,189098
5,188920,188901,188905,188895,189305
11,189110,189106,189110,189099,189511
1,189330,189311,189316,189304,189718
4,189530,189516,189521,189508,189925
2,189760,189720,189726,189712,190132
9,189960,189925,189932,189917,190339
6,190090,190130,190137,190121,190546
3,190340,190335,190343,190326,190753
12,190540,190540,190548,190530,190960
7,190920,191006,191000,190999,191374
10,191180,191211,191205,191204,191580
5,191410,191416,191410,191409,191787
8,191630,191620,191615,191614,191994
1,191860,191825,191820,191819,192201
11,192070,192029,192026,192024,192408
2,192290,192234,192231,192229,192615
4,192470,192438,192436,192435,192822
6,192680,192643,192641,192640,193029
9,192870,192847,192847,192845,193236
3,193070,193052,193052,193050,193442
12,193150,193256,193257,193255,193649
7,193380,193461,193462,193460,193856
5,193640,193665,193668,193665,194063
10,193820,193870,193873,193870,194270
1,194100,194074,194078,194075,194477
8,194310,194279,194283,194280,194684
2,194570,194483,194489,194486,194891
11,194730,194688,194694,194691,195098
6,194860,194892,194899,194896,195304
4,195070,195097,195104,195101,195511
3,195330,195301,195310,195306,195718
9,195510,195506,195515,195511,195925
12,195660,195710,195720,195716,196132
5,196170,196194,196185,196194,196546
7,196420,196399,196390,196400,196753
10,196620,196604,196596,196605,196960
8,196820,196809,196801,196810,197166
1,197030,197014,197007,197016,197373
11,197260,197219,197212,197221,197580
2,197440,197424,197417,197426,197787
4,197650,197629,197623,197632,197994
6,197880,197834,197828,197837,198201
9,198030,198039,198034,198042,198408
3,198240,198244,198239,198247,198615
12,198350,198449,198445,198453,198822
5,198650,198654,198650,198658,199028
10,198850,198859,198856,198863,199235
7,199090,199064,199061,199069,199442
1,199290,199269,199267,199274,199649
8,199520,199474,199472,199479,199856
2,199750,199679,199677,199685,200063
11,199910,199884,199883,199890,200270
6,200040,200089,200088,200095,200477
4,200270,200294,200294,200301,200684
3,200510,200498,200499,200506,200890
9,200640,200703,200705,200711,201097
12,200900,200908,200910,200916,201304
10,201390,201388,201373,201391,201718
5,201580,201592,201579,201595,201925
7,201770,201797,201784,201800,202132
8,202040,202002,201990,202005,202339
1,202260,202206,202195,202209,202546
11,202460,202411,202401,202414,202752
2,202660,202616,202607,202618,202959
4,202840,202821,202812,202823,203166
6,203050,203025,203018,203028,203373
9,203200,203230,203223,203232,203580
3,203380,203435,203429,203437,203787
12,203550,203639,203635,203641,203994
10,203790,203844,203840,203846,204201
7,204020,204049,204046,204051,204408
5,204260,204253,204251,204255,204614
1,204490,204458,204457,204460,204821
8,204690,204663,204663,204664,205028
2,204930,204867,204868,204869,205235
11,205150,205072,205074,205074,205442
6,205250,205277,205279,205278,205649
4,205450,205481,205485,205483,205856
3,205710,205686,205691,205687,206063
9,205870,205891,205896,205892,206270
12,206060,206096,206102,206097,206476
7,206490,206569,206550,206554,206890
10,206760,206772,206755,206759,207097
1,206980,206975,206960,206963,207304
5,207260,207178,207165,207168,207511
2,207440,207381,207371,207372,207718
8,207670,207585,207576,207577,207925
6,207820,207788,207781,207781,208132
11,208030,207991,207986,207986,208339
3,208130,208194,208191,208190,208545
4,208340,208398,208397,208395,208752
9,208570,208601,208602,208599,208959
12,208710,208804,208807,208804,209166
10,209050,209007,209012,209008,209373
7,209090,209210,209218,209213,209580
1,209400,209414,209423,209417,209787
2,209640,209617,209628,209622,209994
5,209870,209820,209833,209826,210201
6,210030,210023,210039,210031,210407
8,210330,210227,210244,210235,210614
3,210470,210430,210449,210440,210821
11,210650,210633,210654,210644,211028
9,210790,210836,210860,210849,211235
4,210990,211040,211065,211053,211442
12,211230,211243,211270,211258,211649
10,211810,211741,211727,211738,212063
1,212010,211945,211932,211942,212269
7,212210,212149,212137,212147,212476
5,212360,212352,212342,212351,212683
2,212560,212556,212548,212556,212890
8,212800,212759,212753,212760,213097
6,212950,212963,212958,212965,213304
11,213160,213166,213163,213169,213511
3,213360,213370,213368,213373,213718
4,213560,213573,213573,213578,213925
9,213720,213777,213778,213782,214131
12,213900,213980,213983,213987,214338
1,214250,214184,214188,214191,214545
10,214350,214387,214394,214396,214752
7,214600,214591,214599,214600,214959
2,214830,214794,214804,214805,215166
5,215050,214998,215009,215009,215373
6,215190,215202,215214,215214,215580
8,215420,215405,215419,215418,215787
3,215630,215609,215624,215623,215993
11,215810,215812,215829,215827,216200
9,216000,216016,216034,216032,216407
4,216210,216219,216240,216236,216614
12,216400,216423,216445,216441,216821
1,216910,216911,216896,216904,217235
7,217140,217115,217101,217108,217442
10,217330,217318,217306,217312,217649
5,217540,217521,217511,217516,217855
2,217750,217724,217716,217720,218062
8,217970,217927,217921,217924,218269
6,218160,218130,218125,218128,218476
11,218310,218334,218330,218332,218683
3,218510,218537,218535,218536,218890
4,218730,218740,218740,218740,219097
9,218890,218943,218945,218944,219304
12,219050,219146,219150,219148,219511
7,219370,219349,219354,219352,219717
1,219570,219552,219559,219557,219924
10,219780,219756,219764,219761,220131
2,220000,219959,219969,219965,220338
5,220200,220162,220174,220169,220545
6,220380,220365,220379,220373,220752
8,220630,220568,220584,220577,220959
3,220800,220771,220788,220781,221166
11,220920,220975,220993,220985,221373
9,221130,221178,221198,221189,221579
4,221390,221381,221403,221393,221786
12,221550,221584,221608,221597,221993
1,222120,222078,222061,222068,222407
7,222370,222281,222265,222272,222614
2,222500,222484,222470,222476,222821
10,222690,222686,222674,222680,223028
6,222910,222889,222879,222884,223235
5,223100,223092,223084,223088,223441
3,223280,223294,223288,223291,223648
8,223520,223497,223493,223495,223855
9,223670,223700,223697,223699,224062
11,223860,223902,223902,223903,224269
4,224070,224105,224107,224107,224476
12,224230,224308,224311,224311,224683
1,224530,224511,224516,224515,224890
2,224760,224713,224720,224719,225097
7,224970,224916,224925,224923,225304
6,225120,225119,225129,225127,225510
10,225260,225321,225334,225330,225717
3,225510,225524,225539,225534,225924
5,225730,225727,225743,225738,226131
9,225910,225929,225948,225942,226338
8,226170,226132,226152,226146,226545
4,226360,226335,226357,226350,226752
11,226510,226537,226562,226554,226959
12,226760,226740,226766,226758,227166
2,227220,227226,227218,227226,227579
1,227420,227429,227423,227429,227786
7,227680,227633,227627,227633,227993
10,227850,227836,227832,227836,228200
6,228030,228040,228036,228040,228407
5,228260,228243,228240,228243,228614
3,228490,228447,228445,228447,228821
8,228650,228650,228649,228650,229028
9,228860,228854,228854,228854,229234
11,229080,229057,229058,229057,229441
4,229240,229261,229262,229261,229648
12,229350,229464,229467,229464,229855
2,229640,229668,229671,229668,230062
7,229810,229871,229876,229871,230269
1,230030,230075,230080,230075,230476
6,230280,230278,230284,230278,230683
10,230470,230482,230489,230481,230890
3,230710,230685,230693,230685,231096
5,230890,230889,230898,230888,231303
9,231120,231092,231102,231092,231510
8,231340,231296,231306,231295,231717
4,231540,231499,231511,231499,231924
11,231710,231703,231715,231702,232131
12,231910,231906,231920,231906,232338
7,232230,232361,232367,232355,232752
2,232510,232566,232571,232560,232958
1,232730,232771,232776,232764,233165
10,232970,232975,232980,232968,233372
6,233160,233180,233184,233173,233579
5,233370,233385,233388,233377,233786
3,233580,233590,233593,233582,233993
8,233830,233795,233797,233786,234200
9,234020,233999,234001,233991,234407
11,234220,234204,234205,234195,234614
4,234430,234409,234410,234400,234820
12,234590,234614,234614,234604,235027
7,234770,234818,234818,234808,235234
1,234990,235023,235023,235013,235441
2,235210,235228,235227,235217,235648
6,235390,235433,235431,235422,235855
10,235650,235638,235635,235626,236062
3,235860,235842,235840,235831,236269
5,236020,236047,236044,236035,236476
9,236270,236252,236248,236240,236682
8,236490,236457,236452,236444,236889
4,236660,236662,236657,236648,237096
11,236860,236866,236861,236853,237303
12,237140,237071,237065,237057,237510
1,237570,237552,237540,237555,237924
7,237820,237757,237745,237760,238131
6,238030,237962,237949,237964,238338
2,238180,238167,238154,238169,238544
3,238330,238371,238359,238374,238751
10,238550,238576,238564,238578,238958
9,238750,238781,238769,238783,239165
5,239000,238986,238973,238988,239372
4,239220,239190,239178,239192,239579
8,239400,239395,239383,239397,239786
11,239570,239600,239588,239601,239993
12,239740,239805,239793,239806,240200
7,239990,240009,239997,240011,240407
1,240240,240214,240202,240215,240613
6,240400,240419,240407,240420,240820
3,240630,240624,240612,240625,241027
2,240830,240828,240817,240829,241234
9,240990,241033,241021,241034,241441
10,241210,241238,241226,241238,241648
4,241410,241443,241431,241443,241855
5,241640,241647,241636,241648,242062
11,241880,241852,241840,241852,242269
8,242110,242057,242045,242057,242475
12,242310,242262,242250,242261,242682
7,242670,242717,242705,242706,243096
6,242900,242921,242910,242910,243303
1,243120,243125,243115,243115,243510
2,243300,243329,243319,243319,243717
3,243540,243533,243524,243524,243924
10,243750,243738,243729,243728,244131
9,243930,243942,243934,243933,244337
5,244110,244146,244139,244138,244544
4,244320,244350,244343,244342,244751
8,244530,244554,244548,244547,244958
11,244770,244758,244753,244751,245165
12,244950,244963,244958,244956,245372
6,245190,245167,245163,245160,245579
7,245400,245371,245367,245365,245786
1,245620,245575,245572,245569,245993
3,245690,245779,245777,245774,246199
2,245960,245984,245982,245978,246406
9,246150,246188,246186,246183,246613
10,246350,246392,246391,246387,246820
4,246570,246596,246596,246592,247027
5,246780,246800,246801,246796,247234
11,247040,247004,247006,247001,247441
8,247270,247209,247210,247206,247648
12,247480,247413,247415,247410,247855
6,247940,247897,247885,247898,248268
1,248160,248102,248091,248103,248475
7,248350,248307,248296,248308,248682
2,248500,248512,248501,248513,248889
3,248720,248716,248706,248718,249096
10,248910,248921,248911,248923,249303
9,249070,249126,249116,249128,249510
5,249330,249331,249321,249333,249717
4,249520,249535,249527,249538,249923
8,249710,249740,249732,249743,250130
11,249910,249945,249937,249948,250337
12,250100,250150,250142,250153,250544
1,250380,250355,250347,250358,250751
6,250620,250559,250552,250563,250958
7,250820,250764,250758,250768,251165
3,251020,250969,250963,250973,251372
2,251220,251174,251168,251178,251579
9,251350,251378,251373,251383,251785
10,251550,251583,251578,251588,251992
4,251770,251788,251783,251793,252199
5,251970,251993,251988,251998,252406
11,252190,252197,252194,252203,252613
8,252400,252402,252399,252408,252820
12,252620,252607,252604,252613,253027
6,253100,253084,253065,253072,253441
1,253310,253288,253270,253277,253647
3,253490,253491,253475,253482,253854
7,253780,253695,253680,253686,254061
9,253930,253899,253885,253891,254268
2,254090,254103,254090,254096,254475
4,254280,254307,254296,254301,254682
10,254520,254510,254501,254506,254889
5,254730,254714,254706,254711,255096
8,254920,254918,254911,254916,255303
11,255060,255122,255116,255121,255509
12,255250,255326,255322,255326,255716
6,255520,255529,255527,255531,255923
3,255750,255733,255732,255736,256130
1,255900,255937,255937,255941,256337
9,256150,256141,256142,256146,256544
7,256370,256345,256347,256351,256751
4,256520,256548,256553,256555,256958
2,256730,256752,256758,256760,257165
5,256940,256956,256963,256965,257372
10,257150,257160,257168,257170,257578
11,257340,257363,257373,257375,257785
8,257630,257567,257579,257580,257992
12,257820,257771,257784,257785,258199
3,258270,258259,258251,258261,258613
6,258520,258464,258457,258467,258820
1,258740,258670,258662,258672,259027
7,258920,258875,258868,258877,259234
9,259090,259080,259073,259083,259440
2,259270,259285,259279,259288,259647
4,259460,259491,259484,259493,259854
10,259650,259696,259690,259699,260061
5,259900,259901,259895,259904,260268
8,260110,260106,260101,260109,260475
11,260270,260312,260306,260315,260682
12,260450,260517,260512,260520,260889
3,260710,260722,260717,260725,261096
1,260940,260927,260923,260930,261302
6,261170,261133,261128,261136,261509
9,261330,261338,261333,261341,261716
7,261540,261543,261539,261546,261923
4,261730,261749,261744,261752,262130
2,261970,261954,261950,261957,262337
5,262140,262159,262155,262162,262544
10,262340,262364,262361,262368,262751
11,262570,262570,262566,262573,262958
8,262820,262775,262772,262778,263164
12,263030,262980,262977,262984,263371
1,263450,263451,263443,263448,263785
3,263630,263657,263649,263654,263992
6,263820,263863,263855,263860,264199
7,264040,264069,264061,264066,264406
9,264300,264275,264266,264272,264613
2,264490,264480,264472,264477,264820
4,264700,264686,264678,264683,265026
10,264890,264892,264884,264889,265233
5,265120,265098,265089,265095,265440
8,265340,265303,265295,265301,265647
11,265480,265509,265501,265507,265854
12,265680,265715,265707,265712,266061
1,265920,265921,265913,265918,266268
6,266140,266126,266118,266124,266475
3,266330,266332,266324,266330,266682
9,266530,266538,266530,266536,266888
7,266730,266744,266736,266742,267095
4,266910,266949,266941,266948,267302
2,267180,267155,267147,267153,267509
5,267350,267361,267353,267359,267716
10,267530,267567,267559,267565,267923
11,267780,267772,267764,267771,268130
8,268000,267978,267970,267977,268337
12,268230,268184,268176,268183,268544
6,268680,268670,268651,268669,268957
1,268920,268876,268857,268875,269164
9,269130,269081,269063,269081,269371
3,269270,269287,269269,269287,269578
4,269490,269492,269476,269492,269785
7,269720,269697,269682,269698,269992
5,269910,269903,269888,269904,270199
2,270110,270108,270094,270110,270406
11,270280,270314,270300,270316,270612
10,270490,270519,270507,270522,270819
8,270700,270725,270713,270727,271026
12,270870,270930,270919,270933,271233
1,271160,271136,271125,271139,271440
6,271410,271341,271332,271345,271647
9,271570,271547,271538,271551,271854
4,271770,271752,271744,271757,272061
3,271970,271958,271950,271963,272268
5,272160,272163,272157,272168,272474
7,272390,272369,272363,272374,272681
11,272560,272574,272569,272580,272888
2,272790,272780,272775,272786,273095
8,273000,272985,272981,272992,273302
10,273160,273191,273188,273198,273509
12,273360,273396,273394,273403,273716
1,273890,273876,273854,273865,274130
9,274140,274080,274060,274070,274337
6,274330,274285,274266,274276,274543
3,274500,274489,274473,274481,274750
4,274700,274694,274679,274687,274957
7,274890,274898,274885,274892,275164
5,275100,275103,275091,275098,275371
2,275340,275308,275297,275304,275578
11,275440,275512,275504,275509,275785
10,275690,275717,275710,275715,275992
8,275920,275921,275916,275920,276199
12,275990,276126,276122,276126,276405
9,276280,276330,276328,276332,276612
1,276520,276535,276535,276537,276819
6,276760,276740,276741,276743,277026
4,276980,276944,276947,276948,277233
3,277170,277149,277153,277154,277440
5,277360,277353,277360,277359,277647
7,277610,277558,277566,277565,277854
11,277760,277762,277772,277771,278061
2,278030,277967,277978,277976,278267
8,278210,278172,278184,278182,278474
10,278340,278376,278391,278387,278681
12,278540,278581,278597,278593,278888
9,279040,279069,279060,279072,279302
6,279260,279275,279266,279278,279509
1,279510,279480,279472,279483,279716
3,279660,279686,279679,279689,279923
4,279880,279892,279885,279894,280129
7,280180,280097,280091,280100,280336
5,280400,280303,280298,280306,280543
2,280610,280509,280504,280511,280750
11,280680,280715,280710,280717,280957
10,280920,280920,280916,280923,281164
8,281130,281126,281123,281128,281371
12,281150,281332,281329,281334,281578
6,281490,281537,281535,281539,281785
9,281660,281743,281742,281745,281991
1,281910,281949,281948,281951,282198
4,282190,282154,282154,282156,282405
3,282390,282360,282361,282362,282612
5,282640,282566,282567,282568,282819
7,282860,282771,282773,282773,283026
11,283010,282977,282980,282979,283233
2,283280,283183,283186,283185,283440
8,283390,283389,283392,283390,283647
10,283490,283594,283599,283596,283853
12,283750,283800,283805,283801,284060
9,284250,284277,284261,284273,284474
6,284460,284482,284467,284478,284681
4,284650,284687,284673,284683,284888
1,284880,284892,284879,284888,285095
5,285110,285096,285085,285093,285302
3,285340,285301,285292,285298,285509
11,285560,285506,285498,285503,285715
7,285820,285711,285704,285708,285922
2,285980,285915,285910,285913,286129
10,286050,286120,286116,286118,286336
8,286290,286325,286322,286324,286543
12,286430,286530,286529,286529,286750
9,286730,286734,286735,286734,286957
4,286890,286939,286941,286939,287164
6,287120,287144,287147,287144,287371
5,287360,287348,287353,287349,287577
1,287580,287553,287560,287554,287784
11,287780,287758,287766,287759,287991
3,288010,287963,287972,287964,288198
2,288200,288167,288178,288170,288405
7,288390,288372,288384,288375,288612
8,288600,288577,288590,288580,288819
10,288700,288782,288797,288785,289026
12,288970,288986,289003,288990,289233
4,289410,289467,289451,289456,289646
9,289720,289671,289657,289661,289853
6,289900,289874,289863,289866,290060
1,290150,290078,290069,290070,290267
5,290340,290282,290275,290275,290474
3,290510,290486,290480,290480,290681
11,290660,290690,290686,290685,290888
7,290890,290894,290892,290890,291095
2,291070,291098,291098,291095,291302
10,291230,291302,291303,291300,291508
8,291460,291506,291509,291505,291715
12,291620,291710,291715,291710,291922
4,291850,291914,291921,291915,292129
6,292140,292118,292127,292120,292336
9,292340,292322,292332,292325,292543
5,292570,292526,292538,292530,292750
1,292790,292730,292744,292735,292957
11,292960,292934,292950,292940,293164
3,293170,293138,293156,293145,293370
2,293350,293342,293361,293350,293577
7,293530,293546,293567,293555,293784
8,293770,293750,293773,293759,293991
10,293920,293954,293979,293964,294198
12,294150,294158,294185,294169,294405
6,294680,294650,294638,294637,294819
4,294880,294854,294843,294843,295026
9,295060,295058,295049,295048,295232
1,295300,295262,295254,295253,295439
5,295520,295466,295460,295459,295646
3,295690,295670,295665,295664,295853
11,295860,295874,295871,295870,296060
7,296050,296078,296076,296075,296267
2,296230,296282,296282,296280,296474
10,296450,296486,296487,296486,296681
8,296660,296690,296693,296691,296888
12,296780,296894,296898,296896,297094
6,297120,297098,297104,297102,297301
9,297340,297302,297309,297307,297508
4,297520,297506,297515,297513,297715
5,297780,297710,297720,297718,297922
1,297990,297914,297926,297923,298129
11,298130,298118,298131,298129,298336
3,298390,298322,298337,298334,298543
2,298570,298526,298543,298540,298750
7,298650,298730,298748,298745,298956
8,298940,298934,298954,298950,299163
10,299050,299138,299159,299156,299370
12,299340,299342,299365,299361,299577
9,299820,299841,299831,299838,299991
6,300060,300046,300037,300044,300198
5,300290,300251,300242,300249,300405
4,300470,300456,300448,300455,300612
11,300630,300661,300654,300661,300818
1,300970,300866,300859,300866,301025
2,301140,301071,301065,301072,301232
3,301310,301276,301271,301278,301439
7,301520,301481,301476,301483,301646
10,301640,301686,301682,301689,301853
8,301850,301891,301888,301894,302060
12,302020,302096,302093,302100,302267
6,302280,302301,302299,302306,302474
9,302500,302506,302505,302511,302680
5,302740,302711,302710,302717,302887
11,302900,302916,302916,302923,303094
4,303090,303121,303122,303128,303301
2,303330,303326,303327,303334,303508
1,303530,303531,303533,303539,303715
7,303750,303736,303739,303745,303922
3,303980,303941,303944,303951,304129
8,304170,304146,304150,304156,304336
10,304290,304351,304356,304362,304542
12,304590,304556,304561,304568,304749
6,305030,305045,305028,305038,305163
5,305270,305250,305234,305244,305370
9,305490,305455,305440,305449,305577
4,305620,305659,305645,305655,305784
11,305810,305864,305851,305860,305991
1,306100,306069,306057,306066,306198
2,306280,306274,306263,306271,306404
3,306430,306479,306469,306477,306611
7,306750,306684,306675,306682,306818
10,306870,306889,306881,306888,307025
8,307060,307094,307086,307093,307232
12,307250,307299,307292,307299,307439
5,307560,307504,307498,307504,307646
6,307740,307708,307704,307710,307853
9,307990,307913,307910,307915,308060
11,308150,308118,308116,308121,308267
4,308320,308323,308322,308326,308473
2,308550,308528,308528,308532,308680
1,308750,308733,308733,308737,308887
7,308890,308938,308939,308943,309094
3,309130,309143,309145,309148,309301
8,309340,309348,309351,309354,309508
10,309480,309553,309557,309559,309715
12,309780,309757,309763,309765,309922
5,310260,310250,310226,310233,310335
9,310510,310454,310432,310439,310542
6,310670,310658,310638,310645,310749
4,310850,310863,310844,310851,310956
11,311050,311067,311050,311056,311163
1,311280,311271,311256,311262,311370
2,311490,311475,311462,311468,311577
3,311640,311679,311667,311673,311784
7,311930,311883,311873,311879,311991
10,312100,312087,312079,312085,312197
8,312280,312291,312285,312291,312404
12,312380,312495,312491,312496,312611
9,312690,312699,312697,312702,312818
5,312950,312903,312903,312908,313025
6,313160,313107,313109,313113,313232
11,313350,313311,313314,313319,313439
4,313490,313515,313520,313525,313646
2,313750,313719,313726,313731,313853
1,313950,313923,313932,313936,314059
7,314090,314128,314138,314142,314266
3,314360,314332,314344,314348,314473
8,314540,314536,314550,314553,314680
10,314660,314740,314756,314759,314887
12,314950,314944,314961,314965,315094
5,315470,315445,315430,315443,315508
9,315670,315650,315637,315649,315715
11,315860,315855,315843,315854,315921
6,316050,316061,316049,316060,316128
2,316280,316266,316255,316266,316335
4,316450,316471,316461,316472,316542
7,316720,316677,316667,316677,316749
1,316900,316882,316873,316883,316956
3,317070,317087,317079,317089,317163
10,317310,317292,317285,317294,317370
8,317500,317498,317491,317500,317577
12,317670,317703,317698,317706,317783
5,317910,317908,317904,317912,317990
11,318110,318113,318110,318117,318197
9,318300,318319,318316,318323,318404
2,318550,318524,318522,318529,318611
6,318730,318729,318728,318735,318818
7,318950,318935,318934,318940,319025
4,319140,319140,319140,319146,319232
3,319340,319345,319346,319352,319439
1,319560,319550,319553,319557,319645
8,319770,319756,319759,319763,319852
10,319900,319961,319965,319969,320059
12,320200,320166,320171,320175,320266
11,320660,320656,320633,320643,320680
5,320880,320860,320839,320849,320887
9,321080,321065,321045,321054,321094
6,321270,321269,321251,321260,321301
2,321460,321474,321458,321465,321507
4,321660,321678,321664,321671,321714
7,321880,321882,321870,321876,321921
1,322110,322087,322076,322082,322128
3,322300,322291,322282,322287,322335
10,322490,322496,322488,322493,322542
8,322670,322700,322694,322698,322749
12,322810,322905,322900,322904,322956
11,323120,323109,323106,323109,323163
9,323300,323313,323312,323315,323370
5,323550,323518,323519,323520,323576
2,323760,323722,323725,323726,323783
6,323970,323927,323931,323931,323990
7,324170,324131,324137,324137,324197
4,324320,324336,324343,324342,324404
3,324540,324540,324549,324548,324611
1,324770,324744,324755,324753,324818
8,324940,324949,324961,324959,325025
10,325090,325153,325167,325164,325232
12,325360,325358,325373,325370,325438
9,325830,325847,325834,325843,325852
11,325980,326052,326040,326048,326059
5,326230,326257,326246,326254,326266
6,326500,326463,326452,326459,326473
2,326690,326668,326658,326665,326680
4,326870,326873,326864,326870,326887
7,327130,327078,327071,327075,327094
1,327340,327283,327277,327281,327300
3,327510,327488,327483,327486,327507
10,327690,327693,327689,327692,327714
8,327850,327898,327895,327897,327921
12,328020,328103,328101,328102,328128
9,328280,328308,328307,328308,328335
5,328530,328513,328513,328513,328542
11,328650,328719,328719,328718,328749
2,328930,328924,328925,328924,328956
6,329160,329129,329131,329129,329162
7,329440,329334,329338,329335,329369
4,329560,329539,329544,329540,329576
3,329770,329744,329750,329745,329783
1,329970,329949,329956,329951,329990
8,330160,330154,330162,330156,330197
10,330270,330359,330368,330362,330404
12,330560,330564,330574,330567,330611
5,331090,331055,331031,331040,331024
9,331310,331259,331236,331245,331231
2,331460,331463,331442,331450,331438
11,331600,331666,331648,331655,331645
7,331900,331870,331854,331860,331852
6,332090,332073,332060,332065,332059
3,332270,332277,332266,332270,332266
4,332430,332481,332472,332475,332473
1,332720,332684,332677,332680,332680
10,332860,332888,332883,332885,332886
8,333050,333091,333089,333090,333093
12,333220,333295,333295,333295,333300
9,333540,333499,333501,333500,333507
5,333780,333702,333707,333705,333714
2,333970,333906,333912,333910,333921
7,334160,334109,334118,334115,334128
11,334270,334313,334324,334320,334335
3,334490,334517,334530,334525,334542
6,334700,334720,334736,334730,334748
1,334950,334924,334942,334935,334955
4,335110,335127,335148,335140,335162
8,335330,335331,335353,335345,335369
10,335470,335534,335559,335550,335576
12,335770,335738,335765,335755,335783
9,336220,336232,336216,336222,336197
2,336380,336435,336422,336427,336404
5,336610,336639,336627,336631,336610
11,336880,336843,336833,336836,336817
7,337100,337046,337038,337040,337024
6,337300,337250,337244,337245,337231
3,337490,337454,337449,337449,337438
4,337650,337657,337655,337654,337645
1,337890,337861,337860,337859,337852
10,338050,338065,338066,338063,338059
8,338200,338268,338271,338268,338266
12,338410,338472,338477,338472,338472
2,338680,338676,338682,338677,338679
9,338870,338880,338888,338881,338886
5,339080,339083,339093,339086,339093
7,339320,339287,339299,339291,339300
11,339480,339491,339504,339495,339507
3,339720,339694,339710,339700,339714
6,339920,339898,339915,339904,339921
1,340160,340102,340121,340109,340128
4,340370,340305,340326,340313,340335
8,340480,340509,340532,340518,340541
10,340610,340713,340737,340723,340748
12,340920,340916,340943,340927,340955
2,341400,341408,341394,341393,341369
5,341620,341611,341599,341597,341576
9,341810,341815,341804,341802,341783
11,342010,342018,342009,342007,341990
7,342240,342221,342214,342211,342197
6,342450,342425,342419,342416,342403
3,342640,342628,342624,342621,342610
4,342800,342832,342829,342826,342817
1,343060,343035,343034,343030,343024
10,343260,343238,343240,343235,343231
8,343420,343442,343445,343440,343438
12,343520,343645,343650,343644,343645
5,343850,343848,343855,343849,343852
2,344080,344052,344060,344054,344059
9,344260,344255,344265,344258,344265
7,344490,344458,344470,344463,344472
11,344640,344662,344675,344668,344679
3,344880,344865,344880,344873,344886
6,345090,345068,345085,345077,345093
1,345360,345272,345291,345282,345300
4,345490,345475,345496,345487,345507
8,345680,345679,345701,345691,345714
10,345800,345882,345906,345896,345921
12,346070,346085,346111,346101,346127
2,346520,346583,346571,346573,346541
5,346760,346787,346776,346778,346748
7,347010,346991,346981,346983,346955
9,347230,347195,347186,347188,347162
3,347370,347399,347391,347393,347369
11,347580,347603,347597,347598,347576
1,347860,347807,347802,347803,347783
6,348120,348011,348007,348008,347989
4,348300,348215,348212,348213,348196
10,348370,348419,348417,348418,348403
8,348570,348623,348622,348623,348610
12,348750,348827,348827,348828,348817
2,349010,349031,349032,349032,349024
7,349280,349235,349237,349237,349231
5,349460,349439,349442,349442,349438
3,349700,349643,349647,349647,349645
9,349860,349847,349852,349852,349851
1,350080,350051,350057,350057,350058
11,350250,350255,350262,350262,350265
4,350430,350459,350467,350467,350472
6,350620,350663,350672,350672,350679
8,350880,350867,350877,350877,350886
10,351010,351071,351082,351082,351093
12,351300,351275,351287,351287,351300
7,351740,351768,351753,351753,351713
2,351950,351972,351958,351959,351920
5,352150,352177,352163,352164,352127
9,352420,352381,352368,352369,352334
3,352610,352585,352573,352575,352541
11,352780,352789,352778,352780,352748
1,353000,352993,352983,352986,352955
6,353260,353197,353189,353191,353162
4,353420,353401,353394,353397,353369
10,353600,353605,353599,353602,353575
8,353800,353809,353804,353808,353782
12,353930,354014,354009,354013,353989
7,354210,354218,354214,354219,354196
5,354440,354422,354419,354424,354403
2,354640,354626,354624,354629,354610
3,354850,354830,354830,354835,354817
9,355030,355034,355035,355040,355024
1,355280,355238,355240,355246,355231
11,355430,355442,355445,355451,355437
4,355670,355647,355650,355657,355644
6,355810,355851,355855,355862,355851
8,356040,356055,356060,356068,356058
10,356230,356259,356266,356273,356265
12,356490,356463,356471,356479,356472
5,357010,356972,356947,356964,356886
7,357250,357176,357153,357169,357093
2,357390,357380,357358,357374,357300
9,357610,357584,357564,357579,357506
3,357770,357788,357769,357785,357713
11,357950,357992,357975,357990,357920
1,358170,358197,358180,358195,358127
6,358420,358401,358386,358400,358334
4,358630,358605,358591,358605,358541
10,358840,358809,358797,358811,358748
8,359010,359013,359002,359016,358955
12,359150,359217,359207,359221,359162
5,359440,359421,359413,359426,359368
2,359630,359625,359618,359632,359575
7,359880,359829,359824,359837,359782
3,360070,360033,360029,360042,359989
9,360230,360237,360235,360247,360196
1,360450,360441,360440,360453,360403
11,360650,360645,360646,360658,360610
4,360840,360849,360851,360863,360817
6,361040,361053,361057,361068,361024
8,361270,361258,361262,361273,361230
10,361390,361462,361468,361479,361437
12,361680,361666,361673,361684,361644
2,362140,362165,362135,362150,362058
5,362340,362368,362340,362354,362265
3,362530,362571,362545,362558,362472
7,362830,362774,362751,362762,362679
1,363010,362976,362956,362967,362886
9,363260,363179,363161,363171,363092
4,363410,363382,363367,363375,363299
11,363560,363585,363572,363579,363506
6,363770,363787,363777,363784,363713
10,364010,363990,363983,363988,363920
8,364200,364193,364188,364192,364127
12,364320,364396,364393,364396,364334
5,364620,364598,364599,364600,364541
2,364830,364801,364804,364805,364748
3,364990,365004,365009,365009,364954
1,365210,365207,365214,365213,365161
7,365460,365409,365420,365417,365368
4,365630,365612,365625,365622,365575
9,365820,365815,365830,365826,365782
6,365960,366018,366036,366030,365989
11,366230,366220,366241,366234,366196
8,366450,366423,366446,366438,366403
10,366560,366626,366652,366643,366610
12,366820,366829,366857,366847,366816
5,367350,367330,367306,367310,367230
3,367560,367532,367511,367514,367437
2,367740,367734,367716,367718,367644
7,367930,367936,367921,367922,367851
1,368160,368138,368126,368126,368058
9,368330,368340,368330,368330,368265
4,368520,368542,368535,368533,368472
11,368740,368744,368740,368737,368678
6,368920,368947,368945,368941,368885
10,369110,369149,369150,369145,369092
8,369340,369351,369354,369349,369299
12,369480,369553,369559,369553,369506
3,369800,369755,369764,369757,369713
5,369980,369957,369969,369961,369920
2,370220,370159,370174,370165,370127
1,370430,370361,370378,370369,370334
7,370580,370563,370583,370573,370540
4,370790,370766,370788,370777,370747
9,370970,370968,370993,370980,370954
6,371130,371170,371198,371184,371161
11,371360,371372,371402,371388,371368
8,371580,371574,371607,371592,371575
10,371720,371776,371812,371796,371782
12,371980,371978,372017,372000,371989
3,372440,372482,372469,372471,372402
2,372680,372684,372674,372675,372609
5,372890,372887,372878,372879,372816
7,373130,373090,373083,373082,373023
1,373330,373293,373287,373286,373230
9,373540,373496,373491,373490,373437
4,373690,373698,373696,373694,373644
11,373880,373901,373900,373898,373851
6,374040,374104,374105,374101,374058
10,374330,374307,374309,374305,374265
8,374490,374509,374514,374509,374471
12,374640,374712,374718,374713,374678
2,374990,374915,374922,374916,374885
3,375160,375118,375127,375120,375092
5,375300,375321,375331,375324,375299
1,375560,375523,375536,375528,375506
7,375750,375726,375740,375732,375713
4,375910,375929,375945,375935,375920
9,376130,376132,376149,376139,376127
6,376300,376334,376353,376343,376333
11,376550,376537,376558,376547,376540
8,376770,376740,376762,376751,376747
10,376890,376943,376967,376954,376954
12,377160,377146,377171,377158,377161
3,377600,377648,377623,377629,377575
2,377850,377849,377827,377832,377782
1,378070,378050,378031,378035,377989
5,378270,378252,378235,378238,378195
4,378470,378453,378439,378441,378402
7,378760,378654,378643,378644,378609
6,378960,378856,378847,378847,378816
9,379060,379057,379051,379050,379023
8,379250,379258,379255,379253,379230
11,379410,379460,379459,379457,379437
10,379650,379661,379663,379660,379644
12,379820,379862,379867,379863,379851
3,380010,380064,380071,380066,380057
1,380230,380265,380275,380269,380264
2,380490,380466,380479,380472,380471
4,380650,380667,380683,380675,380678
5,380830,380869,380887,380878,380885
6,381030,381070,381091,381081,381092
7,381310,381271,381295,381284,381299
8,381500,381473,381499,381487,381506
9,381670,381674,381703,381690,381713
10,381860,381875,381907,381893,381919
11,382080,382077,382111,382096,382126
12,382310,382278,382314,382299,382333
1,382780,382776,382759,382758,382747
3,382940,382977,382963,382961,382954
2,383160,383178,383166,383163,383161
5,383350,383379,383369,383366,383368
4,383560,383580,383573,383568,383575
7,383830,383781,383776,383770,383781
6,384030,383982,383979,383973,383988
9,384270,384183,384183,384175,384195
8,384440,384384,384386,384378,384402
11,384550,384585,384589,384580,384609
10,384730,384786,384793,384783,384816
12,384940,384987,384996,384985,385023
1,385200,385188,385200,385188,385230
2,385420,385389,385403,385390,385437
3,385630,385590,385606,385593,385643
4,385750,385791,385810,385795,385850
5,385940,385992,386013,385998,386057
6,386110,386194,386216,386200,386264
7,386320,386395,386420,386403,386471
8,386580,386596,386623,386605,386678
9,386830,386797,386826,386808,386885
10,387030,386998,387030,387010,387092
11,387210,387199,387233,387213,387299
12,387480,387400,387436,387415,387505
1,387940,387897,387885,387875,387919
2,388130,388098,388087,388078,388126
3,388310,388299,388290,388281,388333
4,388510,388500,388493,388484,388540
5,388680,388701,388696,388686,388747
6,388860,388902,388899,388889,388954
7,389050,389103,389102,389092,389161
8,389260,389304,389304,389295,389367
9,389490,389505,389507,389498,389574
10,389660,389706,389710,389701,389781
11,389900,389907,389913,389904,389988
12,390150,390108,390116,390106,390195
1,390350,390309,390319,390309,390402
2,390560,390510,390521,390512,390609
3,390750,390712,390724,390715,390816
4,390920,390913,390927,390918,391023
5,391100,391114,391130,391121,391230
6,391300,391315,391333,391324,391436
7,391460,391516,391535,391527,391643
8,391690,391717,391738,391729,391850
9,391870,391918,391941,391932,392057
10,392070,392119,392144,392135,392264
11,392330,392320,392347,392338,392471
12,392650,392521,392550,392541,392678
1,393050,393014,393015,393017,393092
2,393230,393218,393218,393219,393298
3,393410,393421,393421,393422,393505
4,393610,393624,393624,393625,393712
5,393790,393828,393827,393828,393919
6,394030,394031,394030,394031,394126
7,394200,394234,394233,394234,394333
8,394410,394438,394436,394437,394540
9,394580,394641,394639,394640,394747
10,394840,394844,394842,394842,394954
11,395060,395047,395045,395045,395160
12,395240,395251,395248,395248,395367
1,395480,395454,395451,395451,395574
2,395690,395657,395654,395654,395781
3,395880,395861,395857,395857,395988
4,396060,396064,396060,396060,396195
5,396250,396267,396263,396262,396402
6,396460,396471,396465,396465,396609
7,396610,396674,396668,396668,396816
8,396790,396877,396871,396871,397022
9,397040,397081,397074,397074,397229
10,397270,397284,397277,397277,397436
11,397560,397487,397480,397480,397643
12,397850,397691,397683,397683,397850
